The node 1 connected to the 10, 64, 3, 5, 7, 9
The node 2 connected to the 11, 65
The node 3 connected to the 12, 66
The node 4 connected to the 13, 67
The node 5 connected to the 14, 68
The node 6 connected to the 15, 69
The node 7 connected to the 16, 70
The node 8 connected to the 17, 71
The node 9 connected to the 18, 72, 7, 5, 3, 1
The node 10 connected to the 1, 19, 12, 14, 16, 18
The node 11 connected to the 2, 20
The node 12 connected to the 3, 21
The node 13 connected to the 4, 22
The node 14 connected to the 5, 23
The node 15 connected to the 6, 24
The node 16 connected to the 7, 25
The node 17 connected to the 8, 26
The node 18 connected to the 9, 27, 16, 14, 12, 10
The node 19 connected to the 10, 28, 21, 23, 25, 27
The node 20 connected to the 11, 29
The node 21 connected to the 12, 30
The node 22 connected to the 13, 31
The node 23 connected to the 14, 32
The node 24 connected to the 15, 33
The node 25 connected to the 16, 34
The node 26 connected to the 17, 35
The node 27 connected to the 18, 36, 25, 23, 21, 19
The node 28 connected to the 19, 37, 30, 32, 34, 36
The node 29 connected to the 20, 38
The node 30 connected to the 21, 39
The node 31 connected to the 22, 40
The node 32 connected to the 23, 41
The node 33 connected to the 24, 42
The node 34 connected to the 25, 43
The node 35 connected to the 26, 44
The node 36 connected to the 27, 45, 34, 32, 30, 28
The node 37 connected to the 28, 46, 39, 41, 43, 45
The node 38 connected to the 29, 47
The node 39 connected to the 30, 48
The node 40 connected to the 31, 49
The node 41 connected to the 32, 50
The node 42 connected to the 33, 51
The node 43 connected to the 34, 52
The node 44 connected to the 35, 53
The node 45 connected to the 36, 54, 43, 41, 39, 37
The node 46 connected to the 37, 55, 48, 50, 52, 54
The node 47 connected to the 38, 56
The node 48 connected to the 39, 57
The node 49 connected to the 40, 58
The node 50 connected to the 41, 59
The node 51 connected to the 42, 60
The node 52 connected to the 43, 61
The node 53 connected to the 44, 62
The node 54 connected to the 45, 63, 52, 50, 48, 46
The node 55 connected to the 46, 64, 57, 59, 61, 63
The node 56 connected to the 47, 65
The node 57 connected to the 48, 66
The node 58 connected to the 49, 67
The node 59 connected to the 50, 68
The node 60 connected to the 51, 69
The node 61 connected to the 52, 70
The node 62 connected to the 53, 71
The node 63 connected to the 54, 72, 61, 59, 57, 55
The node 64 connected to the 55, 1, 66, 68, 70, 72
The node 65 connected to the 56, 2
The node 66 connected to the 57, 3
The node 67 connected to the 58, 4
The node 68 connected to the 59, 5
The node 69 connected to the 60, 6
The node 70 connected to the 61, 7
The node 71 connected to the 62, 8
The node 72 connected to the 63, 9, 70, 68, 66, 64
